<?xml version="1.0" encoding="utf-8"?>
<!-- Generator: Adobe Illustrator 21.0.2, SVG Export Plug-In . SVG Version: 6.00 Build 0)  -->
<svg version="1.1" id="Layer_1" xmlns="http://www.w3.org/2000/svg" xmlns:xlink="http://www.w3.org/1999/xlink" x="0px" y="0px"
	 viewBox="0 0 180 180" style="enable-background:new 0 0 180 180;" xml:space="preserve">
<style type="text/css">
	.st0{fill:#FFFFFF;}
</style>
<path class="st0" d="M136.3,66.7c0-28.4-24.3-41.3-46.3-41.3s-46.3,13-46.3,41.3c0,25.7,31.8,44.5,37.8,47.8l-9.3,13.1h16.5v17.7
	c0,4.3,3.3,7.7,7.3,7.7s7.3-3.5,7.3-7.7v-4.1c0-2.6,1.9-4.7,4.3-4.7c2.4,0,4.3,2.1,4.3,4.7v13.4h3v-13.4c0-4.3-3.3-7.7-7.3-7.7
	s-7.3,3.5-7.3,7.7v4.1c0,2.6-1.9,4.7-4.3,4.7c-2.4,0-4.3-2.1-4.3-4.7v-17.7h16l-9.3-13.1C104.4,111.3,136.3,92.4,136.3,66.7z
	 M89.9,40.6c-0.1,0-14.3-0.5-23.2,8.1c-4.9,4.7-7.4,11.4-7.4,19.8h-3.1c0-9.3,2.8-16.7,8.4-22.1c9.9-9.5,24.8-9,25.4-8.9L89.9,40.6z
	"/>
</svg>
