<?xml version="1.0" encoding="UTF-8" standalone="no"?>
<svg width="21px" height="20px" viewBox="0 0 21 20" version="1.1" xmlns="http://www.w3.org/2000/svg" xmlns:xlink="http://www.w3.org/1999/xlink">
    <!-- Generator: Sketch 3.6.1 (26313) - http://www.bohemiancoding.com/sketch -->
    <title>icn_category_financijskeusluge_default</title>
    <desc>Created with Sketch.</desc>
    <defs></defs>
    <g id="Styleguide" stroke="none" stroke-width="1" fill="none" fill-rule="evenodd">
        <g id="04.02.---UI-elements" transform="translate(-439.000000, -737.000000)" fill="#313943">
            <g id="icn_category_financijskeusluge_default" transform="translate(439.000000, 737.000000)">
                <path d="M3.91304348,11.3043478 L0.434782609,11.3043478 C0.194347826,11.3043478 0,11.4991304 0,11.7391304 L0,18.2608696 C0,18.5008696 0.194347826,18.6956522 0.434782609,18.6956522 L3.91304348,18.6956522 C4.15347826,18.6956522 4.34782609,18.5008696 4.34782609,18.2608696 L4.34782609,11.7391304 C4.34782609,11.4991304 4.15347826,11.3043478 3.91304348,11.3043478 Z M20.7421739,14.9097826 C19.7213043,13.8893478 18.8408696,13.6058696 17.6895652,13.935 L15.0734783,14.8028261 C15.0965217,14.9397826 15.1086957,15.078913 15.1086957,15.2176087 C15.1086957,15.7745652 14.9282609,16.2980435 14.6004348,16.6915217 C14.2186957,17.1493478 13.6804348,17.3915217 13.0434783,17.3915217 L8.69565217,17.3915217 C8.45521739,17.3915217 8.26086957,17.1967391 8.26086957,16.9567391 C8.26086957,16.7163043 8.45521739,16.5219565 8.69565217,16.5219565 L13.0434783,16.5219565 C13.4191304,16.5219565 13.7182609,16.3915217 13.9321739,16.1345652 C14.1273913,15.9006522 14.2391304,15.5663043 14.2391304,15.2176087 C14.2391304,14.7328261 13.9873913,13.9132609 13.0434783,13.9132609 L10.6108696,13.9132609 L10.4347826,13.9132609 C10.3191304,13.9132609 10.2086957,13.8671739 10.1273913,13.7854348 C9.72869565,13.3867391 8.51565217,12.1736957 6.52173913,12.1736957 L5.2173913,12.1736957 C4.97695652,12.1736957 4.7826087,12.3684783 4.7826087,12.6084783 L4.7826087,17.3915217 C4.7826087,17.5784783 4.90217391,17.7445652 5.08,17.8036957 C6.4373913,18.2563043 7.49826087,18.6423913 8.35043478,18.9519565 C10.0265217,19.5615217 10.9652174,19.8906522 11.8017391,19.8906522 C12.7986957,19.8906522 13.6513043,19.4228261 15.4334783,18.4041304 C16.6126087,17.7302174 18.2273913,16.8071739 20.6291304,15.6063043 C20.753913,15.5436957 20.8417391,15.425 20.863913,15.2871739 C20.886087,15.148913 20.8413043,15.0084783 20.7421739,14.9097826 Z M14.7826087,6.08695652 C16.4604348,6.08695652 17.826087,4.72173913 17.826087,3.04347826 C17.826087,1.36521739 16.4604348,0 14.7826087,0 C13.1047826,0 11.7391304,1.36521739 11.7391304,3.04347826 C11.7391304,4.72173913 13.1047826,6.08695652 14.7826087,6.08695652 Z M14.3478261,2.17391304 C14.3478261,1.93391304 14.5421739,1.73913043 14.7826087,1.73913043 C15.0230435,1.73913043 15.2173913,1.93391304 15.2173913,2.17391304 L15.2173913,3.91304348 C15.2173913,4.15304348 15.0230435,4.34782609 14.7826087,4.34782609 C14.5421739,4.34782609 14.3478261,4.15304348 14.3478261,3.91304348 L14.3478261,2.17391304 Z M10.8695652,12.173913 C12.5473913,12.173913 13.9130435,10.8086957 13.9130435,9.13043478 C13.9130435,7.45217391 12.5473913,6.08695652 10.8695652,6.08695652 C9.19173913,6.08695652 7.82608696,7.45217391 7.82608696,9.13043478 C7.82608696,10.8086957 9.19173913,12.173913 10.8695652,12.173913 Z M10.4347826,8.26086957 C10.4347826,8.02086957 10.6291304,7.82608696 10.8695652,7.82608696 C11.11,7.82608696 11.3043478,8.02086957 11.3043478,8.26086957 L11.3043478,10 C11.3043478,10.24 11.11,10.4347826 10.8695652,10.4347826 C10.6291304,10.4347826 10.4347826,10.24 10.4347826,10 L10.4347826,8.26086957 Z" id="icn_category_financijskeusluge"></path>
            </g>
        </g>
    </g>
</svg>