<?xml version="1.0" encoding="utf-8"?>
<!-- Generator: Adobe Illustrator 21.0.2, SVG Export Plug-In . SVG Version: 6.00 Build 0)  -->
<svg version="1.1" id="Layer_1" xmlns="http://www.w3.org/2000/svg" xmlns:xlink="http://www.w3.org/1999/xlink" x="0px" y="0px"
	 viewBox="0 0 180 180" style="enable-background:new 0 0 180 180;" xml:space="preserve">
<style type="text/css">
	.st0{fill:#FFFFFF;}
</style>
<g>
	<circle class="st0" cx="54.4" cy="122.8" r="15.4"/>
	<circle class="st0" cx="126.9" cy="122.8" r="15.4"/>
	<path class="st0" d="M79.4,41.7v64.5H75V53.6H62.5c-3.2,0-6.3,1.5-8.2,4.1L30.4,89.1c-1.4,1.8-2.1,4-2.1,6.2v22.4v5.1h7.2
		c0-0.3,0-0.5,0-0.8c0-10.9,8.5-19.1,18.9-19.1c10.5,0,18.9,8.2,18.9,19.1c0,0.3,0,0.5,0,0.8h6.1h11.1H108c0-0.3,0-0.5,0-0.8
		c0-10.9,8.5-19.1,18.9-19.1s18.9,8.2,18.9,19.1c0,0.3,0,0.5,0,0.8h5.9V41.7H79.4z M68.5,66.9C57.6,70.9,47.6,87,47.6,87
		c1.2-10.8,7.6-18.7,11-22.2c1.2-1.3,2.7-1.1,4.5-1.1c1.5,0,4,0.1,5.6,0.4C69.9,64.4,69.7,66.4,68.5,66.9z"/>
</g>
</svg>
